Columbia Summer Steelhead Inseason Forecast for Counts 7/1-7/31 @ Bonneville Dam
…
print(series)

## # A tibble: 2,726 x 4
##    date       abundance  yday  year
##    <date>         <dbl> <dbl> <dbl>
##  1 2003-03-15         7     1  2003
##  2 2003-03-16         0     2  2003
##  3 2003-03-17         0     3  2003
##  4 2003-03-18         8     4  2003
##  5 2003-03-19         0     5  2003
##  6 2003-03-20         2     6  2003
##  7 2003-03-21         5     7  2003
##  8 2003-03-22         6     8  2003
##  9 2003-03-23         4     9  2003
## 10 2003-03-24         0    10  2003
## # ... with 2,716 more rows
…
